APIs
…
Now that were authorized, we can do a simple search for tweets. Given the conference, we should see the total number of recent tweets (in the last 7 days) for #SIOP19. Note that rtweet only searches tweets in the last 7-9 days, and free accounts only allow unlimited access to tweets in the last 7 days (from what I can tell, although they may change permissions soon).

tweets <- search_tweets(
  q           = "#SIOP19", # the search string
  include_rts = FALSE,     # retweets?
  token       = token
)

## Searching for tweets...

## Finished collecting tweets!

tweets

## # A tibble: 99 x 88
##    user_id status_id created_at          screen_name text  source
##  * <chr>   <chr>     <dttm>              <chr>       <chr> <chr> 
##  1 125368 11113723 2019-03-28 21:00:00 talentkeep "Loo Tweet
##  2 125368 11109647 2019-03-27 18:00:01 talentkeep "Loo Tweet
##  3 125368 11106876 2019-03-26 23:39:00 talentkeep "Loo Tweet
##  4 581346 11113717 2019-03-28 20:57:21 ProfSearle  Soun Twitt
##  5 224851 11113685 2019-03-28 20:44:45 Rob_Briner  "If  Twitt
##  6 277610 11110477 2019-03-27 23:30:04 SIOPtweets  What Hoots
##  7 277610 11113573 2019-03-28 20:00:24 SIOPtweets  Plat Hoots
##  8 277610 11113661 2019-03-28 20:35:06 SIOPtweets  Earn Hoots
##  9 277610 11113219 2019-03-28 17:39:40 SIOPtweets  Wher Insta
## 10 277610 11110176 2019-03-27 21:30:28 SIOPtweets  Than Hoots
## # ... with 89 more rows, and 82 more variables: display_text_width <dbl>,
## #   reply_to_status_id <chr>, reply_to_user_id <chr>,
## #   reply_to_screen_name <chr>, is_quote <lgl>, is_retweet <lgl>,
## #   favorite_count <int>, retweet_count <int>, hashtags <list>,
## #   symbols <list>, urls_url <list>, urls_t.co <list>,
## #   urls_expanded_url <list>, media_url <list>, media_t.co <list>,
## #   media_expanded_url <list>, media_type <list>, ext_media_url <list>,
## #   ext_media_t.co <list>, ext_media_expanded_url <list>,
## #   ext_media_type <chr>, mentions_user_id <list>,
…
We can also look up friends of particular twitter users. Because SIOPtweets is the official twitter of SIOP, we can find out its friends.

siop_friends_id <- get_friends(users = "SIOPtweets",
                               token = token)
siop_friends_dt <- lookup_users(users = siop_friends_id$user_id,
                                token = token)
siop_friends_dt

## # A tibble: 408 x 88
##    user_id status_id created_at          screen_name text  source
##  * <chr>   <chr>     <dttm>              <chr>       <chr> <chr> 
##  1 581504 11113136 2019-03-28 17:06:41 Bukhari_Mu Chai Tweet
##  2 110088 <NA>      NA                  IshbelMcWha <NA>  <NA>  
##  3 951117 11005684 2019-02-27 01:29:12 tkantro     @Ela Twitt
##  4 157021 11112416 2019-03-28 12:20:24 Aartideetoo Thri Twitt
##  5 444044 11058052 2019-03-13 12:18:12 jaclynmjen DePa Twitt
##  6 330714 11113402 2019-03-28 18:52:17 acolquitt   @gra Twitt
##  7 101760 11112733 2019-03-28 14:26:29 SIOP_ECC    I ca Twitt
##  8 940338 11113553 2019-03-28 19:52:06 lisa_kath   If B Twitt
##  9 480264 11105115 2019-03-26 11:59:28 mindonthej Prep Twitt
## 10 151848 11113761 2019-03-28 21:14:51 mikemorris @Dan Twitt
## # ... with 398 more rows, and 82 more variables: display_text_width <int>,
## #   reply_to_status_id <chr>, reply_to_user_id <chr>,
## #   reply_to_screen_name <chr>, is_quote <lgl>, is_retweet <lgl>,
## #   favorite_count <int>, retweet_count <int>, hashtags <list>,
## #   symbols <list>, urls_url <list>, urls_t.co <list>,
## #   urls_expanded_url <list>, media_url <list>, media_t.co <list>,
## #   media_expanded_url <list>, media_type <list>, ext_media_url <list>,
## #   ext_media_t.co <list>, ext_media_expanded_url <list>,
## #   ext_media_type <chr>, mentions_user_id <list>,
…
